project/m2/tb/waveform.vcd
$date
	Sat May  2 12:47:42 2026
$end
$version
	Icarus Verilog
$end
$timescale
	1s
$end
$scope module tb_waveform $end
$var wire 1 ! weight_wr_en $end
$var wire 8 " weight_wr_data [7:0] $end
$var wire 16 # weight_wr_addr [15:0] $end
$var wire 32 $ threshold [31:0] $end
$var wire 1 % start $end
$var wire 8 & spike_in [7:0] $end
$var wire 1 ' miso $end
$var wire 16 ( beta [15:0] $end
$var wire 16 ) alpha [15:0] $end
$var parameter 32 * CLK_HALF $end
$var parameter 32 + SCK_HOLD $end
$var reg 1 , busy $end
$var reg 1 - clk $end
$var reg 1 . cs_n $end
$var reg 1 / done $end
$var reg 1 0 mosi $end
$var reg 1 1 rst $end
$var reg 1 2 sck $end
$var reg 8 3 spike_out [7:0] $end
$scope module dut $end
$var wire 1 , busy $end
$var wire 1 - clk $end
$var wire 1 . cs_n $end
$var wire 1 4 csn_desel $end
$var wire 1 / done $end
$var wire 1 0 mosi $end
$var wire 1 1 rst $end
$var wire 1 2 sck $end
$var wire 1 5 sck_falling $end
$var wire 1 6 sck_rising $end
$var wire 8 7 spike_out [7:0] $end
$var wire 8 8 rx_byte_now [7:0] $end
$var wire 16 9 rd_addr [15:0] $end
$var parameter 16 : ALPHA_HI $end
$var parameter 32 ; ALPHA_INIT $end
$var parameter 16 < ALPHA_LO $end
$var parameter 16 = BETA_HI $end
$var parameter 32 > BETA_INIT $end
$var parameter 16 ? BETA_LO $end
$var parameter 16 @ CTRL_ADDR $end
$var parameter 32 A DECAY_W $end
$var parameter 32 B NB_BYTES $end
$var parameter 32 C NB_HIDDEN $end
$var parameter 16 D SPIKE_IN_BASE $end
$var parameter 16 E SPIKE_OUT_BASE $end
$var parameter 32 F STATE_W $end
$var parameter 16 G STATUS_ADDR $end
$var parameter 16 H THRESH_B0 $end
$var parameter 16 I THRESH_B1 $end
$var parameter 16 J THRESH_B2 $end
$var parameter 16 K THRESH_B3 $end
$var parameter 32 L THRESH_INIT $end
$var reg 16 M alpha [15:0] $end
$var reg 16 N beta [15:0] $end
$var reg 3 O bit_cnt [2:0] $end
$var reg 2 P byte_cnt [1:0] $end
$var reg 1 Q csn_d1 $end
$var reg 1 R csn_d2 $end
$var reg 1 ' miso $end
$var reg 1 S mosi_d $end
$var reg 8 T reg_rd_data [7:0] $end
$var reg 16 U rx_addr [15:0] $end
$var reg 8 V rx_cmd [7:0] $end
$var reg 8 W rx_shift [7:0] $end
$var reg 1 X sck_d1 $end
$var reg 1 Y sck_d2 $end
$var reg 8 Z spike_in [7:0] $end
$var reg 8 [ spike_out_lat [7:0] $end
$var reg 1 % start $end
$var reg 32 \ threshold [31:0] $end
$var reg 8 ] tx_shift [7:0] $end
$var reg 16 ^ weight_wr_addr [15:0] $end
$var reg 8 _ weight_wr_data [7:0] $end
$var reg 1 ! weight_wr_en $end
$scope begin $ivl_for_loop0 $end
$var integer 32 ` k [31:0] $end
$upscope $end
$scope begin $ivl_for_loop1 $end
$var integer 32 a k [31:0] $end
$upscope $end
$upscope $end
$scope task drive_byte $end
$upscope $end
$scope task spi_read $end
$upscope $end
$scope task spi_write $end
$upscope $end
$upscope $end
$enddefinitions $end
$comment Show the parameter values. $end
$dumpall
b1000000000000000 L
b1010000000111011 K
b1010000000111010 J
b1010000000111001 I
b1010000000111000 H
b1010000000011010 G
b100000 F
b1010000000011011 E
b1010000000000000 D
b1000 C
b1 B
b10000 A
b1010000000011001 @
b1010000000110110 ?
b111001111000011 >
b1010000000110111 =
b1010000000110100 <
b100110110100011 ;
b1010000000110101 :
b100 +
b1010 *
$end
#0
$dumpvars
b0 a
b1 `
bx _
bx ^
bx ]
bx \
bx [
bx Z
xY
xX
bx W
bx V
bx U
b0 T
xS
xR
xQ
bx P
bx O
bx N
bx M
bx 9
bx 8
b10100101 7
x6
x5
x4
b10100101 3
02
11
00
0/
1.
0-
0,
bx )
bx (
x'
bx &
x%
bx $
bx #
bx "
x!
$end
#10
04
05
06
b1 `
b0 9
b0 8
0S
1R
1Q
0Y
0X
b0 [
b1000000000000000 $
b1000000000000000 \
b111001111000011 (
b111001111000011 N
b100110110100011 )
b100110110100011 M
b0 &
b0 Z
0%
b0 "
b0 _
b0 #
b0 ^
0!
0'
b0 ]
b0 U
b0 V
b0 P
b0 O
b0 W
1-
#20
0-
#30
01
1-
#40
0-
#50
1-
#60
0.
0-
#70
0Q
1-
#80
0-
#90
0R
1-
#100
0-
#110
1-
#120
0-
#130
1-
#140
0-
#150
1-
#160
0-
#170
1-
#180
0-
#190
1-
#200
12
0-
#210
16
1X
1-
#220
0-
#230
06
b1 O
1Y
1-
#240
0-
#250
1-
#260
0-
#270
1-
#280
02
0-
#290
15
0X
1-
#300
0-
#310
05
0Y
1-
#320
0-
#330
1-
#340
0-
#350
1-
#360
0-
#370
1-
#380
12
0-
#390
16
1X
1-
#400
0-
#410
06
1Y
b10 O
1-
#420
0-
#430
1-
#440
0-
#450
1-
#460
02
0-
#470
15
0X
1-
#480
0-
#490
05
0Y
1-
#500
0-
#510
1-
#520
0-
#530
1-
#540
0-
#550
1-
#560
12
0-
#570
16
1X
1-
#580
0-
#590
06
b11 O
1Y
1-
#600
0-
#610
1-
#620
0-
#630
1-
#640
02
0-
#650
15
0X
1-
#660
0-
#670
05
0Y
1-
#680
0-
#690
1-
#700
0-
#710
1-
#720
0-
#730
1-
#740
12
0-
#750
16
1X
1-
#760
0-
#770
06
1Y
b100 O
1-
#780
0-
#790
1-
#800
0-
#810
1-
#820
02
0-
#830
15
0X
1-
#840
0-
#850
05
0Y
1-
#860
0-
#870
1-
#880
0-
#890
1-
#900
0-
#910
1-
#920
12
0-
#930
16
1X
1-
#940
0-
#950
06
b101 O
1Y
1-
#960
0-
#970
1-
#980
0-
#990
1-
#1000
02
0-
#1010
15
0X
1-
#1020
0-
#1030
05
0Y
1-
#1040
0-
#1050
1-
#1060
0-
#1070
1-
#1080
0-
#1090
1-
#1100
12
0-
#1110
16
1X
1-
#1120
0-
#1130
06
1Y
b110 O
1-
#1140
0-
#1150
1-
#1160
0-
#1170
1-
#1180
02
0-
#1190
15
0X
1-
#1200
0-
#1210
05
0Y
1-
#1220
10
0-
#1230
b1 `
b1 9
b1 8
1S
1-
#1240
0-
#1250
1-
#1260
0-
#1270
1-
#1280
12
0-
#1290
16
1X
1-
#1300
0-
#1310
b1 `
06
b11 9
b11 8
b111 O
b1 W
1Y
1-
#1320
0-
#1330
1-
#1340
0-
#1350
1-
#1360
02
0-
#1370
15
0X
1-
#1380
0-
#1390
05
0Y
1-
#1400
00
0-
#1410
b1 `
b10 9
b10 8
0S
1-
#1420
0-
#1430
1-
#1440
0-
#1450
1-
#1460
12
0-
#1470
16
1X
1-
#1480
0-
#1490
06
b1 `
b100 9
b100 8
1Y
b1 P
b10 V
b0 O
b10 W
1-
#1500
0-
#1510
1-
#1520
0-
#1530
1-
#1540
02
0-
#1550
15
0X
1-
#1560
0-
#1570
05
0Y
1-
#1580
10
0-
#1590
b1 `
b101 9
b101 8
1S
1-
#1600
0-
#1610
1-
#1620
0-
#1630
1-
#1640
12
0-
#1650
16
1X
1-
#1660
0-
#1670
b1 `
06
b1011 9
b1011 8
b1 O
b101 W
1Y
1-
#1680
0-
#1690
1-
#1700
0-
#1710
1-
#1720
02
0-
#1730
15
0X
1-
#1740
0-
#1750
05
0Y
1-
#1760
00
0-
#1770
b1 `
b1010 9
b1010 8
0S
1-
#1780
0-
#1790
1-
#1800
0-
#1810
1-
#1820
12
0-
#1830
16
1X
1-
#1840
0-
#1850
06
b1 `
b10100 9
b10100 8
1Y
b10 O
b1010 W
1-
#1860
0-
#1870
1-
#1880
0-
#1890
1-
#1900
02
0-
#1910
15
0X
1-
#1920
0-
#1930
05
0Y
1-
#1940
10
0-
#1950
b1 `
b10101 9
b10101 8
1S
1-
#1960
0-
#1970
1-
#1980
0-
#1990
1-
#2000
12
0-
#2010
16
1X
1-
#2020
0-
#2030
b1 `
06
b101011 9
b101011 8
b11 O
b10101 W
1Y
1-
#2040
0-
#2050
1-
#2060
0-
#2070
1-
#2080
02
0-
#2090
15
0X
1-
#2100
0-
#2110
05
0Y
1-
#2120
00
0-
#2130
b1 `
b101010 9
b101010 8
0S
1-
#2140
0-
#2150
1-
#2160
0-
#2170
1-
#2180
12
0-
#2190
16
1X
1-
#2200
0-
#2210
06
b1 `
b1010100 9
b1010100 8
1Y
b100 O
b101010 W
1-
#2220
0-
#2230
1-
#2240
0-
#2250
1-
#2260
02
0-
#2270
15
0X
1-
#2280
0-
#2290
05
0Y
1-
#2300
0-
#2310
1-
#2320
0-
#2330
1-
#2340
0-
#2350
1-
#2360
12
0-
#2370
16
1X
1-
#2380
0-
#2390
b1 `
06
b10101000 9
b10101000 8
b101 O
b1010100 W
1Y
1-
#2400
0-
#2410
1-
#2420
0-
#2430
1-
#2440
02
0-
#2450
15
0X
1-
#2460
0-
#2470
05
0Y
1-
#2480
0-
#2490
1-
#2500
0-
#2510
1-
#2520
0-
#2530
1-
#2540
12
0-
#2550
16
1X
1-
#2560
0-
#2570
06
b1 `
b1010000 9
b1010000 8
1Y
b110 O
b10101000 W
1-
#2580
0-
#2590
1-
#2600
0-
#2610
1-
#2620
02
0-
#2630
15
0X
1-
#2640
0-
#2650
05
0Y
1-
#2660
0-
#2670
1-
#2680
0-
#2690
1-
#2700
0-
#2710
1-
#2720
12
0-
#2730
16
1X
1-
#2740
0-
#2750
b1 `
06
b10100000 9
b10100000 8
b111 O
b1010000 W
1Y
1-
#2760
0-
#2770
1-
#2780
0-
#2790
1-
#2800
02
0-
#2810
15
0X
1-
#2820
0-
#2830
05
0Y
1-
#2840
0-
#2850
1-
#2860
0-
#2870
1-
#2880
0-
#2890
1-
#2900
12
0-
#2910
16
1X
1-
#2920
0-
#2930
06
b1 `
b1010000001000000 9
b1000000 8
1Y
b10 P
b1010000000000000 U
b0 O
b10100000 W
1-
#2940
0-
#2950
1-
#2960
0-
#2970
1-
#2980
02
0-
#2990
15
0X
1-
#3000
0-
#3010
05
0Y
1-
#3020
0-
#3030
1-
#3040
0-
#3050
1-
#3060
0-
#3070
1-
#3080
12
0-
#3090
16
1X
1-
#3100
0-
#3110
b1 `
06
b1010000010000000 9
b10000000 8
b1 O
b1000000 W
1Y
1-
#3120
0-
#3130
1-
#3140
0-
#3150
1-
#3160
02
0-
#3170
15
0X
1-
#3180
0-
#3190
05
0Y
1-
#3200
0-
#3210
1-
#3220
0-
#3230
1-
#3240
0-
#3250
1-
#3260
12
0-
#3270
16
1X
1-
#3280
0-
#3290
06
b1 `
b1010000000000000 9
b0 8
1Y
b10 O
b10000000 W
1-
#3300
0-
#3310
1-
#3320
0-
#3330
1-
#3340
02
0-
#3350
15
0X
1-
#3360
0-
#3370
05
0Y
1-
#3380
0-
#3390
1-
#3400
0-
#3410
1-
#3420
0-
#3430
1-
#3440
12
0-
#3450
16
1X
1-
#3460
0-
#3470
06
b11 O
b0 W
1Y
1-
#3480
0-
#3490
1-
#3500
0-
#3510
1-
#3520
02
0-
#3530
15
0X
1-
#3540
0-
#3550
05
0Y
1-
#3560
0-
#3570
1-
#3580
0-
#3590
1-
#3600
0-
#3610
1-
#3620
12
0-
#3630
16
1X
1-
#3640
0-
#3650
06
1Y
b100 O
1-
#3660
0-
#3670
1-
#3680
0-
#3690
1-
#3700
02
0-
#3710
15
0X
1-
#3720
0-
#3730
05
0Y
1-
#3740
0-
#3750
1-
#3760
0-
#3770
1-
#3780
0-
#3790
1-
#3800
12
0-
#3810
16
1X
1-
#3820
0-
#3830
06
b101 O
1Y
1-
#3840
0-
#3850
1-
#3860
0-
#3870
1-
#3880
02
0-
#3890
15
0X
1-
#3900
0-
#3910
05
0Y
1-
#3920
0-
#3930
1-
#3940
0-
#3950
1-
#3960
0-
#3970
1-
#3980
12
0-
#3990
16
1X
1-
#4000
0-
#4010
06
1Y
b110 O
1-
#4020
0-
#4030
1-
#4040
0-
#4050
1-
#4060
02
0-
#4070
15
0X
1-
#4080
0-
#4090
05
0Y
1-
#4100
0-
#4110
1-
#4120
0-
#4130
1-
#4140
0-
#4150
1-
#4160
12
0-
#4170
16
1X
1-
#4180
0-
#4190
06
b111 O
1Y
1-
#4200
0-
#4210
1-
#4220
0-
#4230
1-
#4240
02
0-
#4250
15
0X
1-
#4260
0-
#4270
05
0Y
1-
#4280
0-
#4290
1-
#4300
0-
#4310
1-
#4320
0-
#4330
1-
#4340
12
0-
#4350
16
1X
1-
#4360
0-
#4370
06
1Y
b11 P
b0 O
1-
#4380
0-
#4390
1-
#4400
0-
#4410
1-
#4420
02
0-
#4430
15
0X
1-
#4440
0-
#4450
05
0Y
1-
#4460
10
0-
#4470
b1 `
b1010000000000001 9
b1 8
1S
1-
#4480
0-
#4490
1-
#4500
0-
#4510
1-
#4520
12
0-
#4530
16
1X
1-
#4540
0-
#4550
b1 `
06
b1010000000000011 9
b11 8
b1 O
b1 W
1Y
1-
#4560
0-
#4570
1-
#4580
0-
#4590
1-
#4600
02
0-
#4610
15
0X
1-
#4620
0-
#4630
05
0Y
1-
#4640
0-
#4650
1-
#4660
0-
#4670
1-
#4680
0-
#4690
1-
#4700
12
0-
#4710
16
1X
1-
#4720
0-
#4730
06
b1 `
b1010000000000111 9
b111 8
1Y
b10 O
b11 W
1-
#4740
0-
#4750
1-
#4760
0-
#4770
1-
#4780
02
0-
#4790
15
0X
1-
#4800
0-
#4810
05
0Y
1-
#4820
00
0-
#4830
b1 `
b1010000000000110 9
b110 8
0S
1-
#4840
0-
#4850
1-
#4860
0-
#4870
1-
#4880
12
0-
#4890
16
1X
1-
#4900
0-
#4910
b1 `
06
b1010000000001100 9
b1100 8
b11 O
b110 W
1Y
1-
#4920
0-
#4930
1-
#4940
0-
#4950
1-
#4960
02
0-
#4970
15
0X
1-
#4980
0-
#4990
05
0Y
1-
#5000
0-
#5010
1-
#5020
0-
#5030
1-
#5040
0-
#5050
1-
#5060
12
0-
#5070
16
1X
1-
#5080
0-
#5090
06
b1 `
b1010000000011000 9
b11000 8
1Y
b100 O
b1100 W
1-
#5100
0-
#5110
1-
#5120
0-
#5130
1-
#5140
02
0-
#5150
15
0X
1-
#5160
0-
#5170
05
0Y
1-
#5180
0-
#5190
1-
#5200
0-
#5210
1-
#5220
0-
#5230
1-
#5240
12
0-
#5250
16
1X
1-
#5260
0-
#5270
b1 `
06
b1010000000110000 9
b110000 8
b101 O
b11000 W
1Y
1-
#5280
0-
#5290
1-
#5300
0-
#5310
1-
#5320
02
0-
#5330
15
0X
1-
#5340
0-
#5350
05
0Y
1-
#5360
10
0-
#5370
b1 `
b1010000000110001 9
b110001 8
1S
1-
#5380
0-
#5390
1-
#5400
0-
#5410
1-
#5420
12
0-
#5430
16
1X
1-
#5440
0-
#5450
06
b1 `
b1010000001100011 9
b1100011 8
1Y
b110 O
b110001 W
1-
#5460
0-
#5470
1-
#5480
0-
#5490
1-
#5500
02
0-
#5510
15
0X
1-
#5520
0-
#5530
05
0Y
1-
#5540
00
0-
#5550
b1 `
b1010000001100010 9
b1100010 8
0S
1-
#5560
0-
#5570
1-
#5580
0-
#5590
1-
#5600
12
0-
#5610
16
1X
1-
#5620
0-
#5630
b1 `
06
b1010000011000100 9
b11000100 8
b111 O
b1100010 W
1Y
1-
#5640
0-
#5650
1-
#5660
0-
#5670
1-
#5680
02
0-
#5690
15
0X
1-
#5700
0-
#5710
05
0Y
1-
#5720
10
0-
#5730
b1 `
b1010000011000101 9
b11000101 8
1S
1-
#5740
0-
#5750
1-
#5760
0-
#5770
1-
#5780
12
0-
#5790
16
1X
1-
#5800
0-
#5810
06
b1 `
b1010000010001011 9
b10001011 8
b11000101 &
b11000101 Z
1Y
b0 O
b11000101 W
b1 a
1-
#5820
0-
#5830
1-
#5840
0-
#5850
1-
#5860
02
0-
#5870
15
0X
1-
#5880
0-
#5890
05
0Y
1-
#5900
00
1.
0-
#5910
b1 `
14
b1010000010001010 9
b10001010 8
0S
1Q
1-
#5920
0-
#5930
b1 `
04
b0 9
b0 8
b0 U
b0 V
b0 P
b0 W
1R
1-
#5940
0-
#5950
1-
#5960
0-
#5970
1-
#5980
b1 `
1/
0-
#5990
b1 `
1,
0/
1-
#6000
0.
0-
#6010
0Q
1-
#6020
0-
#6030
0R
1-
#6040
0-
#6050
1-
#6060
0-
#6070
1-
#6080
0-
#6090
1-
#6100
0-
#6110
1-
#6120
0-
#6130
1-
#6140
12
0-
#6150
16
1X
1-
#6160
0-
#6170
06
b1 O
1Y
1-
#6180
0-
#6190
1-
#6200
0-
#6210
1-
#6220
02
0-
#6230
15
0X
1-
#6240
0-
#6250
05
0Y
1-
#6260
0-
#6270
1-
#6280
0-
#6290
1-
#6300
0-
#6310
1-
#6320
12
0-
#6330
16
1X
1-
#6340
0-
#6350
06
1Y
b10 O
1-
#6360
0-
#6370
1-
#6380
0-
#6390
1-
#6400
02
0-
#6410
15
0X
1-
#6420
0-
#6430
05
0Y
1-
#6440
0-
#6450
1-
#6460
0-
#6470
1-
#6480
0-
#6490
1-
#6500
12
0-
#6510
16
1X
1-
#6520
0-
#6530
06
b11 O
1Y
1-
#6540
0-
#6550
1-
#6560
0-
#6570
1-
#6580
02
0-
#6590
15
0X
1-
#6600
0-
#6610
05
0Y
1-
#6620
0-
#6630
1-
#6640
0-
#6650
1-
#6660
0-
#6670
1-
#6680
12
0-
#6690
16
1X
1-
#6700
0-
#6710
06
1Y
b100 O
1-
#6720
0-
#6730
1-
#6740
0-
#6750
1-
#6760
02
0-
#6770
15
0X
1-
#6780
0-
#6790
05
0Y
1-
#6800
0-
#6810
1-
#6820
0-
#6830
1-
#6840
0-
#6850
1-
#6860
12
0-
#6870
16
1X
1-
#6880
0-
#6890
06
b101 O
1Y
1-
#6900
0-
#6910
1-
#6920
0-
#6930
1-
#6940
02
0-
#6950
15
0X
1-
#6960
0-
#6970
05
0Y
1-
#6980
0-
#6990
1-
#7000
0-
#7010
1-
#7020
0-
#7030
1-
#7040
12
0-
#7050
16
1X
1-
#7060
0-
#7070
06
1Y
b110 O
1-
#7080
0-
#7090
1-
#7100
0-
#7110
1-
#7120
02
0-
#7130
15
0X
1-
#7140
0-
#7150
05
0Y
1-
#7160
10
0-
#7170
b1 `
b1 9
b1 8
1S
1-
#7180
0-
#7190
1-
#7200
0-
#7210
1-
#7220
12
0-
#7230
16
1X
1-
#7240
0-
#7250
b1 `
06
b11 9
b11 8
b111 O
b1 W
1Y
1-
#7260
0-
#7270
1-
#7280
0-
#7290
1-
#7300
02
0-
#7310
15
0X
1-
#7320
0-
#7330
05
0Y
1-
#7340
0-
#7350
1-
#7360
0-
#7370
1-
#7380
0-
#7390
1-
#7400
12
0-
#7410
16
1X
1-
#7420
0-
#7430
06
b1 `
b111 9
b111 8
1Y
b1 P
b11 V
b0 O
b11 W
1-
#7440
0-
#7450
1-
#7460
0-
#7470
1-
#7480
02
0-
#7490
15
0X
1-
#7500
0-
#7510
05
0Y
1-
#7520
0-
#7530
1-
#7540
0-
#7550
1-
#7560
0-
#7570
1-
#7580
12
0-
#7590
16
1X
1-
#7600
0-
#7610
b1 `
06
b1111 9
b1111 8
b1 O
b111 W
1Y
1-
#7620
0-
#7630
1-
#7640
0-
#7650
1-
#7660
02
0-
#7670
15
0X
1-
#7680
0-
#7690
05
0Y
1-
#7700
00
0-
#7710
b1 `
b1110 9
b1110 8
0S
1-
#7720
0-
#7730
1-
#7740
0-
#7750
1-
#7760
12
0-
#7770
16
1X
1-
#7780
0-
#7790
06
b1 `
b11100 9
b11100 8
1Y
b10 O
b1110 W
1-
#7800
0-
#7810
1-
#7820
0-
#7830
1-
#7840
02
0-
#7850
15
0X
1-
#7860
0-
#7870
05
0Y
1-
#7880
10
0-
#7890
b1 `
b11101 9
b11101 8
1S
1-
#7900
0-
#7910
1-
#7920
0-
#7930
1-
#7940
12
0-
#7950
16
1X
1-
#7960
0-
#7970
b1 `
06
b111011 9
b111011 8
b11 O
b11101 W
1Y
1-
#7980
0-
#7990
1-
#8000
0-
#8010
1-
#8020
02
0-
#8030
15
0X
1-
#8040
0-
#8050
05
0Y
1-
#8060
00
0-
#8070
b1 `
b111010 9
b111010 8
0S
1-
#8080
0-
#8090
1-
#8100
0-
#8110
1-
#8120
12
0-
#8130
16
1X
1-
#8140
0-
#8150
06
b1 `
b1110100 9
b1110100 8
1Y
b100 O
b111010 W
1-
#8160
0-
#8170
1-
#8180
0-
#8190
1-
#8200
02
0-
#8210
15
0X
1-
#8220
0-
#8230
05
0Y
1-
#8240
0-
#8250
1-
#8260
0-
#8270
1-
#8280
0-
#8290
1-
#8300
12
0-
#8310
16
1X
1-
#8320
0-
#8330
b1 `
06
b11101000 9
b11101000 8
b101 O
b1110100 W
1Y
1-
#8340
0-
#8350
1-
#8360
0-
#8370
1-
#8380
02
0-
#8390
15
0X
1-
#8400
0-
#8410
05
0Y
1-
#8420
0-
#8430
1-
#8440
0-
#8450
1-
#8460
0-
#8470
1-
#8480
12
0-
#8490
16
1X
1-
#8500
0-
#8510
06
b1 `
b11010000 9
b11010000 8
1Y
b110 O
b11101000 W
1-
#8520
0-
#8530
1-
#8540
0-
#8550
1-
#8560
02
0-
#8570
15
0X
1-
#8580
0-
#8590
05
0Y
1-
#8600
0-
#8610
1-
#8620
0-
#8630
1-
#8640
0-
#8650
1-
#8660
12
0-
#8670
16
1X
1-
#8680
0-
#8690
b1 `
06
b10100000 9
b10100000 8
b111 O
b11010000 W
1Y
1-
#8700
0-
#8710
1-
#8720
0-
#8730
1-
#8740
02
0-
#8750
15
0X
1-
#8760
0-
#8770
05
0Y
1-
#8780
0-
#8790
1-
#8800
0-
#8810
1-
#8820
0-
#8830
1-
#8840
12
0-
#8850
16
1X
1-
#8860
0-
#8870
06
b1 `
b1010000001000000 9
b1000000 8
1Y
b10 P
b1010000000000000 U
b0 O
b10100000 W
1-
#8880
0-
#8890
1-
#8900
0-
#8910
1-
#8920
02
0-
#8930
15
0X
1-
#8940
0-
#8950
05
0Y
1-
#8960
0-
#8970
1-
#8980
0-
#8990
1-
#9000
0-
#9010
1-
#9020
12
0-
#9030
16
1X
1-
#9040
0-
#9050
b1 `
06
b1010000010000000 9
b10000000 8
b1 O
b1000000 W
1Y
1-
#9060
0-
#9070
1-
#9080
0-
#9090
1-
#9100
02
0-
#9110
15
0X
1-
#9120
0-
#9130
05
0Y
1-
#9140
0-
#9150
1-
#9160
0-
#9170
1-
#9180
0-
#9190
1-
#9200
12
0-
#9210
16
1X
1-
#9220
0-
#9230
06
b1 `
b1010000000000000 9
b0 8
1Y
b10 O
b10000000 W
1-
#9240
0-
#9250
1-
#9260
0-
#9270
1-
#9280
02
0-
#9290
15
0X
1-
#9300
0-
#9310
05
0Y
1-
#9320
0-
#9330
1-
#9340
0-
#9350
1-
#9360
0-
#9370
1-
#9380
12
0-
#9390
16
1X
1-
#9400
0-
#9410
06
b11 O
b0 W
1Y
1-
#9420
0-
#9430
1-
#9440
0-
#9450
1-
#9460
02
0-
#9470
15
0X
1-
#9480
0-
#9490
05
0Y
1-
#9500
10
0-
#9510
b1 `
b1010000000000001 9
b1 8
1S
1-
#9520
0-
#9530
1-
#9540
0-
#9550
1-
#9560
12
0-
#9570
16
1X
1-
#9580
0-
#9590
06
b1 `
b1010000000000011 9
b11 8
1Y
b100 O
b1 W
1-
#9600
0-
#9610
1-
#9620
0-
#9630
1-
#9640
02
0-
#9650
15
0X
1-
#9660
0-
#9670
05
0Y
1-
#9680
0-
#9690
1-
#9700
0-
#9710
1-
#9720
0-
#9730
1-
#9740
12
0-
#9750
16
1X
1-
#9760
0-
#9770
b1 `
06
b1010000000000111 9
b111 8
b101 O
b11 W
1Y
1-
#9780
0-
#9790
1-
#9800
0-
#9810
1-
#9820
02
0-
#9830
15
0X
1-
#9840
0-
#9850
05
0Y
1-
#9860
00
0-
#9870
b1 `
b1010000000000110 9
b110 8
0S
1-
#9880
0-
#9890
1-
#9900
0-
#9910
1-
#9920
12
0-
#9930
16
1X
1-
#9940
0-
#9950
06
b1 `
b1010000000001100 9
b1100 8
1Y
b110 O
b110 W
1-
#9960
0-
#9970
1-
#9980
0-
#9990
1-
#10000
02
0-
#10010
15
0X
1-
#10020
0-
#10030
05
0Y
1-
#10040
10
0-
#10050
b1 `
b1010000000001101 9
b1101 8
1S
1-
#10060
0-
#10070
1-
#10080
0-
#10090
1-
#10100
12
0-
#10110
16
1X
1-
#10120
0-
#10130
b1 `
06
b1010000000011011 9
b11011 8
b111 O
b1101 W
1Y
1-
#10140
0-
#10150
1-
#10160
0-
#10170
1-
#10180
02
0-
#10190
15
0X
1-
#10200
0-
#10210
05
0Y
1-
#10220
00
0-
#10230
b1 T
b1010000000011010 9
b11010 8
0S
1-
#10240
0-
#10250
1-
#10260
0-
#10270
1-
#10280
12
0-
#10290
16
1X
1-
#10300
0-
#10310
06
b1 `
b0 T
b1010000000110100 9
b110100 8
1Y
b11 P
b1 ]
b1010000000011010 U
b0 O
b11010 W
1-
#10320
0-
#10330
1-
#10340
0-
#10350
1-
#10360
02
0-
#10370
15
0X
1-
#10380
0-
#10390
05
0Y
b10 ]
1-
#10400
0-
#10410
1-
#10420
0-
#10430
1-
#10440
0-
#10450
1-
#10460
12
0-
#10470
16
1X
1-
#10480
0-
#10490
b1 `
06
b1010000001101000 9
b1101000 8
b1 O
b110100 W
1Y
1-
#10500
0-
#10510
1-
#10520
0-
#10530
1-
#10540
02
0-
#10550
15
0X
1-
#10560
0-
#10570
05
b100 ]
0Y
1-
#10580
0-
#10590
1-
#10600
0-
#10610
1-
#10620
0-
#10630
1-
#10640
12
0-
#10650
16
1X
1-
#10660
0-
#10670
06
b1 `
b1010000011010000 9
b11010000 8
1Y
b10 O
b1101000 W
1-
#10680
0-
#10690
1-
#10700
0-
#10710
1-
#10720
02
0-
#10730
15
0X
1-
#10740
0-
#10750
05
0Y
b1000 ]
1-
#10760
0-
#10770
1-
#10780
0-
#10790
1-
#10800
0-
#10810
1-
#10820
12
0-
#10830
16
1X
1-
#10840
0-
#10850
b1 `
06
b1010000010100000 9
b10100000 8
b11 O
b11010000 W
1Y
1-
#10860
0-
#10870
1-
#10880
0-
#10890
1-
#10900
02
0-
#10910
15
0X
1-
#10920
0-
#10930
05
b10000 ]
0Y
1-
#10940
0-
#10950
1-
#10960
0-
#10970
1-
#10980
0-
#10990
1-
#11000
12
0-
#11010
16
1X
1-
#11020
0-
#11030
06
b1 `
b1010000001000000 9
b1000000 8
1Y
b100 O
b10100000 W
1-
#11040
0-
#11050
1-
#11060
0-
#11070
1-
#11080
02
0-
#11090
15
0X
1-
#11100
0-
#11110
05
0Y
b100000 ]
1-
#11120
0-
#11130
1-
#11140
0-
#11150
1-
#11160
0-
#11170
1-
#11180
12
0-
#11190
16
1X
1-
#11200
0-
#11210
b1 `
06
b1010000010000000 9
b10000000 8
b101 O
b1000000 W
1Y
1-
#11220
0-
#11230
1-
#11240
0-
#11250
1-
#11260
02
0-
#11270
15
0X
1-
#11280
0-
#11290
05
b1000000 ]
0Y
1-
#11300
0-
#11310
1-
#11320
0-
#11330
1-
#11340
0-
#11350
1-
#11360
12
0-
#11370
16
1X
1-
#11380
0-
#11390
06
b1 `
b1010000000000000 9
b0 8
1Y
b110 O
b10000000 W
1-
#11400
0-
#11410
1-
#11420
0-
#11430
1-
#11440
02
0-
#11450
15
0X
1-
#11460
0-
#11470
05
0Y
b10000000 ]
1-
#11480
0-
#11490
1-
#11500
0-
#11510
1-
#11520
0-
#11530
1-
#11540
12
0-
#11550
16
1X
1-
#11560
0-
#11570
06
b111 O
b0 W
1Y
1-
#11580
0-
#11590
1-
#11600
0-
#11610
1-
#11620
02
0-
#11630
15
0X
1-
#11640
0-
#11650
05
b0 ]
1'
0Y
1-
#11660
0-
#11670
1-
#11680
0-
#11690
1-
#11700
0-
#11710
1-
#11720
12
0-
#11730
16
1X
1-
#11740
0-
#11750
06
1Y
b0 O
1-
#11760
0-
#11770
1-
#11780
0-
#11790
1-
#11800
02
0-
#11810
15
0X
1-
#11820
0-
#11830
05
0Y
0'
1-
#11840
1.
0-
#11850
14
1Q
1-
#11860
0-
#11870
04
b1 `
b0 9
1R
b0 U
b0 V
b0 P
1-
#11880
0-
#11890
1-
#11900
0-
#11910
1-
#11920
b1 `
0,
0-
#11930
1-
#11940
0.
0-
#11950
0Q
1-
#11960
0-
#11970
0R
1-
#11980
0-
#11990
1-
#12000
0-
#12010
1-
#12020
0-
#12030
1-
#12040
0-
#12050
1-
#12060
0-
#12070
1-
#12080
12
0-
#12090
16
1X
1-
#12100
0-
#12110
06
1Y
b1 O
1-
#12120
0-
#12130
1-
#12140
0-
#12150
1-
#12160
02
0-
#12170
15
0X
1-
#12180
0-
#12190
05
0Y
1-
#12200
0-
#12210
1-
#12220
0-
#12230
1-
#12240
0-
#12250
1-
#12260
12
0-
#12270
16
1X
1-
#12280
0-
#12290
06
b10 O
1Y
1-
#12300
0-
#12310
1-
#12320
0-
#12330
1-
#12340
02
0-
#12350
15
0X
1-
#12360
0-
#12370
05
0Y
1-
#12380
0-
#12390
1-
#12400
0-
#12410
1-
#12420
0-
#12430
1-
#12440
12
0-
#12450
16
1X
1-
#12460
0-
#12470
06
1Y
b11 O
1-
#12480
0-
#12490
1-
#12500
0-
#12510
1-
#12520
02
0-
#12530
15
0X
1-
#12540
0-
#12550
05
0Y
1-
#12560
0-
#12570
1-
#12580
0-
#12590
1-
#12600
0-
#12610
1-
#12620
12
0-
#12630
16
1X
1-
#12640
0-
#12650
06
b100 O
1Y
1-
#12660
0-
#12670
1-
#12680
0-
#12690
1-
#12700
02
0-
#12710
15
0X
1-
#12720
0-
